{
    "appVersionNumber": "1.0.0-prod",
    "environment": "#{ENVIRONMENT}#",
    "internalServerUrl": "#{INTERNALAPIURL}#",
    "altinnServerUrl": "https://tt02.altinn.no",
    "altinnApiKey": "F585D5D3-DA1A-490B-89D4-BBC0CCF5D358",
    "oidc_client_id": "a4fcd135-5562-4254-b2d1-4aa870dfebce",
    "oidc_scope": "altinn:reportees openid profile altinn:instances.read altinn:instances.write",
    "oidc_authority": "https://oidc-ver2.difi.no/idporten-oidc-provider/",
    "oidc_redirect_uri": "#{HOSTNAME}#/signin-oidc",
    "oidc_post_logout_redirect_uri": "#{HOSTNAME}#/signout-callback-oidc",
    "oidc_silent_redirect_uri": "#{HOSTNAME}#/silent-refresh.html",
    "oidc_resource": "",
    "frontendLogAppId": "SaBy",
    "loggerApiUrl": ""
}